…
  # assume independence, i.e, there is no difference
  hypothesize(null = "independence") %>%
  
  # generate 1000 reps, of type "permute"
  generate(reps = 1000, type = "permute") %>%
  
  # calculate statistic of difference, namely "diff in means"
  calculate(stat = "diff in means", order = c("Steven Spielberg", "Tim Burton"))

null_dist1

## Response: rating (numeric)
## Explanatory: director (factor)
## Null Hypothesis: independence
## # A tibble: 1,000 x 2
##    replicate     stat
##        <int>    <dbl>
##  1         1 -0.184  
##  2         2 -0.258  
##  3         3 -0.0992 
##  4         4 -0.290  
##  5         5 -0.311  
##  6         6 -0.364  
##  7         7  0.282  
##  8         8  0.219  
##  9         9 -0.00380
## 10        10  0.304  
## # … with 990 more rows
…
